<?xml version="1.0" encoding="UTF-8" standalone="no"?>
<graphml xmlns="http://graphml.graphdrawing.org/xmlns" xmlns:java="http://www.yworks.com/xml/yfiles-common/1.0/java" xmlns:sys="http://www.yworks.com/xml/yfiles-common/markup/primitives/2.0" xmlns:x="http://www.yworks.com/xml/yfiles-common/markup/2.0" xmlns:xsi="http://www.w3.org/2001/XMLSchema-instance" xmlns:y="http://www.yworks.com/xml/graphml" xmlns:yed="http://www.yworks.com/xml/yed/3" xsi:schemaLocation="http://graphml.graphdrawing.org/xmlns http://www.yworks.com/xml/schema/graphml/1.1/ygraphml.xsd">
  <!--Created by yEd 3.18.1-->
  <key attr.name="Beschreibung" attr.type="string" for="graph" id="d0"/>
  <key for="port" id="d1" yfiles.type="portgraphics"/>
  <key for="port" id="d2" yfiles.type="portgeometry"/>
  <key for="port" id="d3" yfiles.type="portuserdata"/>
  <key attr.name="url" attr.type="string" for="node" id="d4"/>
  <key attr.name="description" attr.type="string" for="node" id="d5"/>
  <key for="node" id="d6" yfiles.type="nodegraphics"/>
  <key for="graphml" id="d7" yfiles.type="resources"/>
  <key attr.name="url" attr.type="string" for="edge" id="d8"/>
  <key attr.name="description" attr.type="string" for="edge" id="d9"/>
  <key for="edge" id="d10" yfiles.type="edgegraphics"/>
  <graph edgedefault="directed" id="G">
    <data key="d0" xml:space="preserve"/>
    <node id="n0">
      <data key="d6">
        <y:SVGNode>
          <y:Geometry height="115.88996887207031" width="174.38400268554688" x="92.80799865722656" y="332.05501556396484"/>
          <y:Fill color="#CCCCFF" transparent="false"/>
          <y:BorderStyle color="#000000" type="line" width="1.0"/>
          <y:NodeLabel alignment="center" autoSizePolicy="content" fontFamily="Dialog" fontSize="12" fontStyle="plain" hasBackgroundColor="false" hasLineColor="false" height="17.962890625" horizontalTextPosition="center" iconTextGap="4" modelName="sandwich" modelPosition="s" textColor="#000000" verticalTextPosition="bottom" visible="true" width="136.64453125" x="18.869735717773438" xml:space="preserve" y="119.88996887207031">Router/Firewall/Switch</y:NodeLabel>
          <y:SVGNodeProperties usingVisualBounds="true"/>
          <y:SVGModel svgBoundsPolicy="0">
            <y:SVGContent refid="1"/>
          </y:SVGModel>
        </y:SVGNode>
      </data>
    </node>
    <node id="n1">
      <data key="d6">
        <y:SVGNode>
          <y:Geometry height="152.55523681640625" width="399.9999694824219" x="-72.3919708251953" y="793.7223815917969"/>
          <y:Fill color="#CCCCFF" transparent="false"/>
          <y:BorderStyle color="#000000" type="line" width="1.0"/>
          <y:NodeLabel alignment="center" autoSizePolicy="content" fontFamily="Dialog" fontSize="12" fontStyle="plain" hasBackgroundColor="false" hasLineColor="false" height="17.962890625" horizontalTextPosition="center" iconTextGap="4" modelName="sandwich" modelPosition="s" textColor="#000000" verticalTextPosition="bottom" visible="true" width="89.283203125" x="155.35838317871094" xml:space="preserve" y="156.55523681640625">Virtualisierung</y:NodeLabel>
          <y:SVGNodeProperties usingVisualBounds="true"/>
          <y:SVGModel svgBoundsPolicy="0">
            <y:SVGContent refid="2"/>
          </y:SVGModel>
        </y:SVGNode>
      </data>
    </node>
    <node id="n2">
      <data key="d6">
        <y:ShapeNode>
          <y:Geometry height="55.60000000000002" width="66.0" x="-93.0" y="708.1223815917969"/>
          <y:Fill color="#FFCC00" transparent="false"/>
          <y:BorderStyle color="#000000" type="line" width="1.0"/>
          <y:NodeLabel alignment="center" autoSizePolicy="content" fontFamily="Dialog" fontSize="12" fontStyle="plain" hasBackgroundColor="false" hasLineColor="false" height="17.962890625" horizontalTextPosition="center" iconTextGap="4" modelName="custom" textColor="#000000" verticalTextPosition="bottom" visible="true" width="57.150390625" x="4.4248046875" xml:space="preserve" y="18.818554687499955">ILO /IPMI<y:LabelModel><y:SmartNodeLabelModel distance="4.0"/></y:LabelModel><y:ModelParameter><y:SmartNodeLabelModelParameter labelRatioX="0.0" labelRatioY="0.0" nodeRatioX="0.0" nodeRatioY="0.0" offsetX="0.0" offsetY="0.0" upX="0.0" upY="-1.0"/></y:ModelParameter></y:NodeLabel>
          <y:Shape type="rectangle"/>
        </y:ShapeNode>
      </data>
    </node>
    <node id="n3">
      <data key="d6">
        <y:ShapeNode>
          <y:Geometry height="55.60000000000002" width="66.0" x="27.0" y="708.1223815917969"/>
          <y:Fill color="#FFCC00" transparent="false"/>
          <y:BorderStyle color="#000000" type="line" width="1.0"/>
          <y:NodeLabel alignment="center" autoSizePolicy="content" fontFamily="Dialog" fontSize="12" fontStyle="plain" hasBackgroundColor="false" hasLineColor="false" height="17.962890625" horizontalTextPosition="center" iconTextGap="4" modelName="custom" textColor="#000000" verticalTextPosition="bottom" visible="true" width="66.314453125" x="-0.1572265625" xml:space="preserve" y="18.818554687499955">Hypervisor<y:LabelModel><y:SmartNodeLabelModel distance="4.0"/></y:LabelModel><y:ModelParameter><y:SmartNodeLabelModelParameter labelRatioX="0.0" labelRatioY="0.0" nodeRatioX="0.0" nodeRatioY="0.0" offsetX="0.0" offsetY="0.0" upX="0.0" upY="-1.0"/></y:ModelParameter></y:NodeLabel>
          <y:Shape type="rectangle"/>
        </y:ShapeNode>
      </data>
    </node>
    <node id="n4">
      <data key="d6">
        <y:SVGNode>
          <y:Geometry height="197.6663818359375" width="371.18267822265625" x="474.4086608886719" y="321.16680908203125"/>
          <y:Fill color="#CCCCFF" transparent="false"/>
          <y:BorderStyle color="#000000" type="line" width="1.0"/>
          <y:NodeLabel alignment="center" autoSizePolicy="content" fontFamily="Dialog" fontSize="12" fontStyle="plain" hasBackgroundColor="false" hasLineColor="false" height="17.962890625" horizontalTextPosition="center" iconTextGap="4" modelName="sandwich" modelPosition="s" textColor="#000000" verticalTextPosition="bottom" visible="true" width="43.978515625" x="163.60208129882812" xml:space="preserve" y="201.6663818359375">Clients</y:NodeLabel>
          <y:SVGNodeProperties usingVisualBounds="true"/>
          <y:SVGModel svgBoundsPolicy="0">
            <y:SVGContent refid="3"/>
          </y:SVGModel>
        </y:SVGNode>
      </data>
    </node>
    <edge id="e0" source="n2" target="n0">
      <data key="d8" xml:space="preserve"/>
      <data key="d10">
        <y:PolyLineEdge>
          <y:Path sx="0.0" sy="0.0" tx="0.0" ty="0.0"/>
          <y:LineStyle color="#000000" type="line" width="1.0"/>
          <y:Arrows source="none" target="standard"/>
          <y:BendStyle smoothed="false"/>
        </y:PolyLineEdge>
      </data>
    </edge>
    <edge id="e1" source="n3" target="n0">
      <data key="d8" xml:space="preserve"/>
      <data key="d10">
        <y:PolyLineEdge>
          <y:Path sx="0.0" sy="0.0" tx="0.0" ty="0.0"/>
          <y:LineStyle color="#000000" type="line" width="1.0"/>
          <y:Arrows source="none" target="standard"/>
          <y:BendStyle smoothed="false"/>
        </y:PolyLineEdge>
      </data>
    </edge>
    <edge id="e2" source="n2" target="n1">
      <data key="d8" xml:space="preserve"/>
      <data key="d10">
        <y:PolyLineEdge>
          <y:Path sx="0.0" sy="0.0" tx="0.0" ty="0.0"/>
          <y:LineStyle color="#000000" type="line" width="1.0"/>
          <y:Arrows source="none" target="standard"/>
          <y:BendStyle smoothed="false"/>
        </y:PolyLineEdge>
      </data>
    </edge>
    <edge id="e3" source="n3" target="n1">
      <data key="d8" xml:space="preserve"/>
      <data key="d10">
        <y:PolyLineEdge>
          <y:Path sx="0.0" sy="0.0" tx="0.0" ty="0.0"/>
          <y:LineStyle color="#000000" type="line" width="1.0"/>
          <y:Arrows source="none" target="standard"/>
          <y:BendStyle smoothed="false"/>
        </y:PolyLineEdge>
      </data>
    </edge>
    <edge id="e4" source="n0" target="n4">
      <data key="d8" xml:space="preserve"/>
      <data key="d10">
        <y:PolyLineEdge>
          <y:Path sx="0.0" sy="0.0" tx="-34.58086808510643" ty="-31.26087489361703"/>
          <y:LineStyle color="#000000" type="line" width="1.0"/>
          <y:Arrows source="standard" target="none"/>
          <y:BendStyle smoothed="false"/>
        </y:PolyLineEdge>
      </data>
    </edge>
  </graph>
  <data key="d7">
    <y:Resources>
      <y:Resource id="1" xml:space="preserve">&lt;?xml version="1.0" encoding="UTF-8" standalone="no"?&gt;
&lt;!-- Created with Inkscape (http://www.inkscape.org/) --&gt;
&lt;svg xmlns:dc="http://purl.org/dc/elements/1.1/" xmlns:cc="http://web.resource.org/cc/" xmlns:rdf="http://www.w3.org/1999/02/22-rdf-syntax-ns#" xmlns:svg="http://www.w3.org/2000/svg" xmlns="http://www.w3.org/2000/svg" xmlns:xlink="http://www.w3.org/1999/xlink" xmlns:sodipodi="http://inkscape.sourceforge.net/DTD/sodipodi-0.dtd" xmlns:inkscape="http://www.inkscape.org/namespaces/inkscape" width="159.28pt" height="159.89pt" id="svg13653" sodipodi:version="0.32" inkscape:version="0.43" sodipodi:docbase="/home/juanjo/graphire/svgs/midev" sodipodi:docname="routerv.svg" version="1.0"&gt;
  &lt;defs id="defs13655"&gt;
    &lt;linearGradient id="linearGradient12828"&gt;
      &lt;stop id="stop12830" offset="0" style="stop-color:#484849;stop-opacity:1;"/&gt;
      &lt;stop style="stop-color:#434344;stop-opacity:1;" offset="0" id="stop12862"/&gt;
      &lt;stop id="stop12832" offset="1.0000000" style="stop-color:#8f8f90;stop-opacity:0.0000000;"/&gt;
    &lt;/linearGradient&gt;
    &lt;radialGradient inkscape:collect="always" xlink:href="#linearGradient12828" id="radialGradient13651" cx="328.57144" cy="602.7193" fx="328.57144" fy="602.7193" r="147.14285" gradientTransform="matrix(1,0,0,0.177184,-1.31839e-15,495.9268)" gradientUnits="userSpaceOnUse"/&gt;
    &lt;linearGradient id="linearGradient12001"&gt;
      &lt;stop style="stop-color:#1b4a78;stop-opacity:1;" offset="0" id="stop12003"/&gt;
      &lt;stop style="stop-color:#5dacd1;stop-opacity:1;" offset="1" id="stop12005"/&gt;
    &lt;/linearGradient&gt;
    &lt;linearGradient inkscape:collect="always" xlink:href="#linearGradient12001" id="linearGradient13633" gradientUnits="userSpaceOnUse" gradientTransform="matrix(0.471308,0,0,0.471308,118.8781,123.5182)" x1="175.71875" y1="737.01562" x2="470.00089" y2="737.01562"/&gt;
    &lt;radialGradient inkscape:collect="always" xlink:href="#linearGradient12828" id="radialGradient13688" gradientUnits="userSpaceOnUse" gradientTransform="matrix(1,0,0,0.177184,-2.563227e-14,495.9268)" cx="328.57144" cy="602.7193" fx="328.57144" fy="602.7193" r="147.14285"/&gt;
    &lt;linearGradient inkscape:collect="always" xlink:href="#linearGradient12001" id="linearGradient13690" gradientUnits="userSpaceOnUse" gradientTransform="matrix(0.471308,0,0,0.471308,118.8781,123.5182)" x1="175.71875" y1="737.01562" x2="470.00089" y2="737.01562"/&gt;
  &lt;/defs&gt;
  &lt;sodipodi:namedview id="base" pagecolor="#ffffff" bordercolor="#666666" borderopacity="1.0" inkscape:pageopacity="0.0" inkscape:pageshadow="2" inkscape:zoom="0.7" inkscape:cx="350" inkscape:cy="520" inkscape:document-units="px" inkscape:current-layer="layer1" inkscape:window-width="1280" inkscape:window-height="949" inkscape:window-x="0" inkscape:window-y="25"/&gt;
  &lt;g inkscape:label="Capa 1" inkscape:groupmode="layer" id="layer1"&gt;
    &lt;g id="g13678" transform="translate(-168.5715,-361.4285)"&gt;
      &lt;path transform="matrix(0.592567,0,0,1.045917,75.12109,-130.213)" d="M 475.71429 602.7193 A 147.14285 26.071428 0 1 1  181.42859,602.7193 A 147.14285 26.071428 0 1 1  475.71429 602.7193 z" sodipodi:ry="26.071428" sodipodi:rx="147.14285" sodipodi:cy="602.7193" sodipodi:cx="328.57144" id="path13641" style="fill:url(#radialGradient13688);fill-opacity:1;stroke:none;stroke-width:1;stroke-miterlimit:4;stroke-dasharray:none;stroke-opacity:1" sodipodi:type="arc"/&gt;
      &lt;path id="path13626" d="M 201.71286,435.70728 L 201.71286,436.00185 C 201.71915,435.90431 201.73342,435.80456 201.74232,435.70728 L 201.71286,435.70728 z M 340.33637,435.70728 C 340.36658,436.03772 340.39529,436.37549 340.39529,436.70881 L 340.39529,435.70728 L 340.33637,435.70728 z M 340.39529,436.70881 C 340.39528,451.76105 309.32034,463.97104 271.03935,463.97104 C 233.35649,463.97105 202.66285,452.14333 201.71286,437.41577 L 201.71286,478.09556 C 201.69778,478.32932 201.69813,478.5526 201.69813,478.78779 C 201.69813,479.01325 201.699,479.24114 201.71286,479.4653 C 202.62437,494.20632 233.33175,506.06475 271.03935,506.06475 C 308.74695,506.06475 339.45433,494.20632 340.36583,479.4653 L 340.39529,479.4653 L 340.39529,478.96453 C 340.39624,478.90582 340.39529,478.84659 340.39529,478.78779 C 340.39529,478.72899 340.39623,478.66976 340.39529,478.61105 L 340.39529,436.70881 z " style="fill:url(#linearGradient13690);fill-opacity:1;stroke:none;stroke-width:1;stroke-miterlimit:4;stroke-dasharray:none;stroke-opacity:1"/&gt;
      &lt;path transform="matrix(0.471308,0,0,1.045917,116.1877,-191.5659)" d="M 475.71429 602.7193 A 147.14285 26.071428 0 1 1  181.42859,602.7193 A 147.14285 26.071428 0 1 1  475.71429 602.7193 z" sodipodi:ry="26.071428" sodipodi:rx="147.14285" sodipodi:cy="602.7193" sodipodi:cx="328.57144" id="path11090" style="fill:#3a78a0;fill-opacity:1;stroke:none;stroke-width:1;stroke-miterlimit:4;stroke-dasharray:none;stroke-opacity:1" sodipodi:type="arc"/&gt;
      &lt;g transform="matrix(0.84958,0.276715,-0.703617,0.334119,443.2028,133.2284)" style="fill:#f2fdff;fill-opacity:0.71171169" id="g13565"&gt;
        &lt;path style="fill:#f2fdff;fill-opacity:0.71171169;stroke:none;stroke-width:1;stroke-miterlimit:4;stroke-dasharray:none;stroke-opacity:1" d="M 328.66945,592.8253 L 322.69078,603.17828 L 316.71211,613.53125 L 322.89647,613.53125 L 322.89647,634.77199 L 334.42873,634.77199 L 334.42873,613.53125 L 340.61308,613.53125 L 334.63441,603.17828 L 328.66945,592.8253 z " id="path13507"/&gt;
        &lt;path style="fill:#f2fdff;fill-opacity:0.71171169;stroke:none;stroke-width:1;stroke-miterlimit:4;stroke-dasharray:none;stroke-opacity:1" d="M 328.66945,687.10951 L 322.69078,676.75653 L 316.71211,666.40356 L 322.89647,666.40356 L 322.89647,645.16282 L 334.42873,645.16282 L 334.42873,666.40356 L 340.61308,666.40356 L 334.63441,676.75653 L 328.66945,687.10951 z " id="path13509"/&gt;
        &lt;path style="fill:#f2fdff;fill-opacity:0.71171169;stroke:none;stroke-width:1;stroke-miterlimit:4;stroke-dasharray:none;stroke-opacity:1" d="M 333.74751,639.82449 L 344.10048,633.84582 L 354.45345,627.86715 L 354.45345,634.05151 L 375.69419,634.05151 L 375.69419,645.58376 L 354.45345,645.58376 L 354.45345,651.76812 L 344.10048,645.78945 L 333.74751,639.82449 z " id="path13511"/&gt;
        &lt;path style="fill:#f2fdff;fill-opacity:0.71171169;stroke:none;stroke-width:1;stroke-miterlimit:4;stroke-dasharray:none;stroke-opacity:1" d="M 323.35667,639.82449 L 313.0037,633.84582 L 302.65072,627.86715 L 302.65072,634.05151 L 281.40999,634.05151 L 281.40999,645.58376 L 302.65072,645.58376 L 302.65072,651.76812 L 313.0037,645.78945 L 323.35667,639.82449 z " id="path13513"/&gt;
      &lt;/g&gt;
    &lt;/g&gt;
  &lt;/g&gt;
  &lt;metadata&gt;
    &lt;rdf:RDF&gt;
      &lt;cc:Work&gt;
        &lt;dc:format&gt;image/svg+xml&lt;/dc:format&gt;
        &lt;dc:type rdf:resource="http://purl.org/dc/dcmitype/StillImage"/&gt;
        &lt;cc:license rdf:resource="http://creativecommons.org/licenses/publicdomain/"/&gt;
        &lt;dc:publisher&gt;
          &lt;cc:Agent rdf:about="http://openclipart.org/"&gt;
            &lt;dc:title&gt;Open Clip Art Library&lt;/dc:title&gt;
          &lt;/cc:Agent&gt;
        &lt;/dc:publisher&gt;
        &lt;dc:title&gt;Router&lt;/dc:title&gt;
        &lt;dc:date&gt;2006-12-07T10:59:07&lt;/dc:date&gt;
        &lt;dc:description&gt;A simple router for network diagrams&lt;/dc:description&gt;
        &lt;dc:source&gt;http://openclipart.org/detail/1918/router-by-juanjo&lt;/dc:source&gt;
        &lt;dc:creator&gt;
          &lt;cc:Agent&gt;
            &lt;dc:title&gt;juanjo&lt;/dc:title&gt;
          &lt;/cc:Agent&gt;
        &lt;/dc:creator&gt;
        &lt;dc:subject&gt;
          &lt;rdf:Bag&gt;
            &lt;rdf:li&gt;clip art&lt;/rdf:li&gt;
            &lt;rdf:li&gt;clipart&lt;/rdf:li&gt;
            &lt;rdf:li&gt;computer&lt;/rdf:li&gt;
            &lt;rdf:li&gt;computer&lt;/rdf:li&gt;
            &lt;rdf:li&gt;diagram&lt;/rdf:li&gt;
            &lt;rdf:li&gt;diagram&lt;/rdf:li&gt;
            &lt;rdf:li&gt;image&lt;/rdf:li&gt;
            &lt;rdf:li&gt;media&lt;/rdf:li&gt;
            &lt;rdf:li&gt;network&lt;/rdf:li&gt;
            &lt;rdf:li&gt;network&lt;/rdf:li&gt;
            &lt;rdf:li&gt;png&lt;/rdf:li&gt;
            &lt;rdf:li&gt;public domain&lt;/rdf:li&gt;
            &lt;rdf:li&gt;router&lt;/rdf:li&gt;
            &lt;rdf:li&gt;router&lt;/rdf:li&gt;
            &lt;rdf:li&gt;svg&lt;/rdf:li&gt;
          &lt;/rdf:Bag&gt;
        &lt;/dc:subject&gt;
      &lt;/cc:Work&gt;
      &lt;cc:License rdf:about="http://creativecommons.org/licenses/publicdomain/"&gt;
        &lt;cc:permits rdf:resource="http://creativecommons.org/ns#Reproduction"/&gt;
        &lt;cc:permits rdf:resource="http://creativecommons.org/ns#Distribution"/&gt;
        &lt;cc:permits rdf:resource="http://creativecommons.org/ns#DerivativeWorks"/&gt;
      &lt;/cc:License&gt;
    &lt;/rdf:RDF&gt;
  &lt;/metadata&gt;
&lt;/svg&gt;</y:Resource>
      <y:Resource id="2" xml:space="preserve">&lt;?xml version="1.0"?&gt;
&lt;svg xmlns:rdf="http://www.w3.org/1999/02/22-rdf-syntax-ns#" xmlns="http://www.w3.org/2000/svg" xmlns:cc="http://creativecommons.org/ns#" xmlns:xlink="http://www.w3.org/1999/xlink" xmlns:dc="http://purl.org/dc/elements/1.1/" xmlns:svg="http://www.w3.org/2000/svg" id="svg2" viewBox="0 0 542.82 206.98" version="1.1"&gt;
  &lt;defs id="defs4"&gt;
    &lt;pattern id="pattern5300" xlink:href="#Strips1_1" patternTransform="matrix(10 0 0 10 279.15 .086657)"/&gt;
    &lt;pattern id="Strips1_1" width="2" patternUnits="userSpaceOnUse" patternTransform="translate(0) scale(10)" height="1"&gt;
      &lt;rect id="rect4583" y="-.5" width="1" x="0" height="2"/&gt;
    &lt;/pattern&gt;
  &lt;/defs&gt;
  &lt;g id="layer1" transform="translate(-34.043 -292.26)"&gt;
    &lt;path id="rect5302" stroke="#000" stroke-width="6.2" fill="#d9d7d9" d="m39 422.36 44.036-95.268c2.8225-6.1064 5.4157-12.143 12.143-12.143h434.32c6.7271 0 10.101 5.7332 12.143 12.143l30.36 95.27"/&gt;
    &lt;rect id="rect3084" stroke-linejoin="round" ry="12.143" height="79.495" width="536.62" stroke="#000" stroke-linecap="round" y="416.65" x="37.143" stroke-width="6.2" fill="#b9baba"/&gt;
    &lt;path id="path3856" stroke-linejoin="round" d="m315.71 460.22c0 12.229-9.9137 22.143-22.143 22.143s-22.143-9.9137-22.143-22.143 9.9137-22.143 22.143-22.143 22.143 9.9137 22.143 22.143z" transform="translate(10 -1.4286)" stroke="#000" stroke-linecap="round" stroke-width="6.2" fill="#f1f3f3"/&gt;
    &lt;rect id="rect3860" stroke-linejoin="round" ry="4.2857" height="8.5714" width="30.714" stroke="#0000f1" stroke-linecap="round" y="454.72" x="288.07" stroke-width="5.8" fill="#f1f3f3"/&gt;
    &lt;rect id="rect3862" ry="4.2857" height="48.571" width="211.43" y="433.79" x="58.571" fill="url(#Strips1_1)"/&gt;
    &lt;rect id="rect5298" ry="4.2857" height="48.571" width="211.43" y="433.88" x="337.72" fill="url(#pattern5300)"/&gt;
    &lt;path id="path5307" stroke="#000" stroke-width="1px" fill="none" d="m230 322.36-10 90"/&gt;
    &lt;path id="path5309" stroke="#000" stroke-width="1px" fill="none" d="m380 322.36 10 90"/&gt;
    &lt;path id="path5311" stroke="#000" stroke-width="1px" fill="none" d="m75 362.36h470"/&gt;
    &lt;g id="g5319" stroke-linejoin="round" transform="translate(-25 87)" stroke="#000" stroke-linecap="round" stroke-width="6.2" fill="#5bd92b"&gt;
      &lt;path id="rect5315" d="m107 243.36 10.857-20.857c3.1-5.96 5.41-12.14 12.14-12.14h105.71c6.7272 0 12.552 5.4282 12.143 12.143l-2.85 46.86"/&gt;
      &lt;path id="rect5313" d="m117.14 237.36h115.71c6.7272 0 12.143 5.4157 12.143 12.143v20.714h-140v-20.714c0-6.7271 5.4157-12.143 12.143-12.143z"/&gt;
    &lt;/g&gt;
    &lt;g id="g5342" stroke-linejoin="round" transform="translate(-40,132)" stroke="#000" stroke-linecap="round" stroke-width="6.2" fill="#5bd92b"&gt;
      &lt;path id="path5344" d="m107 243.36 10.857-20.857c3.1-5.96 5.41-12.14 12.14-12.14h105.71c6.7272 0 12.552 5.4282 12.143 12.143l-2.85 46.86"/&gt;
      &lt;path id="path5346" d="m117.14 237.36h115.71c6.7272 0 12.143 5.4157 12.143 12.143v20.714h-140v-20.714c0-6.7271 5.4157-12.143 12.143-12.143z"/&gt;
    &lt;/g&gt;
    &lt;g id="g5354" stroke-linejoin="round" transform="translate(127.86 85)" stroke="#000" stroke-linecap="round" stroke-width="6.2" fill="#5bd92b"&gt;
      &lt;path id="path5356" d="m106.14 245.36 5.7143-22.857c1.6316-6.5263 5.416-12.207 12.143-12.143l104.71 1c6.7268 0.0642 11.143 5.4905 12.143 12.143l3.2857 21.857"/&gt;
      &lt;path id="path5358" d="m117.14 237.36h115.71c6.7272 0 12.143 5.4157 12.143 12.143v20.714h-140v-20.714c0-6.7271 5.4157-12.143 12.143-12.143z"/&gt;
    &lt;/g&gt;
    &lt;g id="g5348" stroke-linejoin="round" transform="translate(127.86 133)" stroke="#000" stroke-linecap="round" stroke-width="6.2" fill="#5bd92b"&gt;
      &lt;path id="path5350" d="m106.14 245.36 5.7143-22.857c1.6316-6.5263 5.416-12.207 12.143-12.143l104.71 1c6.7268 0.0642 11.143 5.4905 12.143 12.143l3.2857 21.857"/&gt;
      &lt;path id="path5352" d="m117.14 237.36h115.71c6.7272 0 12.143 5.4157 12.143 12.143v20.714h-140v-20.714c0-6.7271 5.4157-12.143 12.143-12.143z"/&gt;
    &lt;/g&gt;
  &lt;/g&gt;
  &lt;metadata&gt;
    &lt;rdf:RDF&gt;
      &lt;cc:Work&gt;
        &lt;dc:format&gt;image/svg+xml&lt;/dc:format&gt;
        &lt;dc:type rdf:resource="http://purl.org/dc/dcmitype/StillImage"/&gt;
        &lt;cc:license rdf:resource="http://creativecommons.org/licenses/publicdomain/"/&gt;
        &lt;dc:publisher&gt;
          &lt;cc:Agent rdf:about="http://openclipart.org/"&gt;
            &lt;dc:title&gt;Openclipart&lt;/dc:title&gt;
          &lt;/cc:Agent&gt;
        &lt;/dc:publisher&gt;
        &lt;dc:title&gt;Four Virtual Machines&lt;/dc:title&gt;
        &lt;dc:date&gt;2012-01-17T23:09:13&lt;/dc:date&gt;
        &lt;dc:description&gt;A representation of 4 virtual machines running on a server. &lt;/dc:description&gt;
        &lt;dc:source&gt;http://openclipart.org/detail/167199/four-virtual-machines-by-damyon&lt;/dc:source&gt;
        &lt;dc:creator&gt;
          &lt;cc:Agent&gt;
            &lt;dc:title&gt;damyon&lt;/dc:title&gt;
          &lt;/cc:Agent&gt;
        &lt;/dc:creator&gt;
        &lt;dc:subject&gt;
          &lt;rdf:Bag&gt;
            &lt;rdf:li&gt;Computer&lt;/rdf:li&gt;
            &lt;rdf:li&gt;IT&lt;/rdf:li&gt;
            &lt;rdf:li&gt;Network&lt;/rdf:li&gt;
            &lt;rdf:li&gt;Server&lt;/rdf:li&gt;
            &lt;rdf:li&gt;Virtual Machine&lt;/rdf:li&gt;
            &lt;rdf:li&gt;clip art&lt;/rdf:li&gt;
            &lt;rdf:li&gt;clipart&lt;/rdf:li&gt;
          &lt;/rdf:Bag&gt;
        &lt;/dc:subject&gt;
      &lt;/cc:Work&gt;
      &lt;cc:License rdf:about="http://creativecommons.org/licenses/publicdomain/"&gt;
        &lt;cc:permits rdf:resource="http://creativecommons.org/ns#Reproduction"/&gt;
        &lt;cc:permits rdf:resource="http://creativecommons.org/ns#Distribution"/&gt;
        &lt;cc:permits rdf:resource="http://creativecommons.org/ns#DerivativeWorks"/&gt;
      &lt;/cc:License&gt;
    &lt;/rdf:RDF&gt;
  &lt;/metadata&gt;
&lt;/svg&gt;
</y:Resource>
      <y:Resource id="3" xml:space="preserve">&lt;?xml version="1.0" encoding="UTF-8" standalone="no"?&gt;
&lt;!-- Created with Inkscape (http://www.inkscape.org/) --&gt;
&lt;svg xmlns:dc="http://purl.org/dc/elements/1.1/" xmlns:cc="http://creativecommons.org/ns#" xmlns:rdf="http://www.w3.org/1999/02/22-rdf-syntax-ns#" xmlns:svg="http://www.w3.org/2000/svg" xmlns="http://www.w3.org/2000/svg" xmlns:xlink="http://www.w3.org/1999/xlink" xmlns:sodipodi="http://sodipodi.sourceforge.net/DTD/sodipodi-0.dtd" xmlns:inkscape="http://www.inkscape.org/namespaces/inkscape" width="366.19431" height="192.80281" id="svg3222" sodipodi:version="0.32" inkscape:version="0.45+devel" sodipodi:docname="net_wan_cloud.svg" inkscape:output_extension="org.inkscape.output.svg.inkscape" version="1.0"&gt;
  &lt;defs id="defs3224"&gt;
    &lt;linearGradient id="linearGradient6414"&gt;
      &lt;stop id="stop6416" offset="0" style="stop-color:#ffffff;stop-opacity:1;"/&gt;
      &lt;stop id="stop6418" offset="1" style="stop-color:#89b9ff;stop-opacity:0;"/&gt;
    &lt;/linearGradient&gt;
    &lt;radialGradient inkscape:collect="always" xlink:href="#linearGradient6414" id="radialGradient2736" gradientUnits="userSpaceOnUse" gradientTransform="matrix(1,0,0,0.5214751,0,157.15804)" cx="325.26562" cy="328.42188" fx="325.26562" fy="328.42188" r="181.09038"/&gt;
    &lt;linearGradient inkscape:collect="always" xlink:href="#linearGradient5168" id="linearGradient6125" gradientUnits="userSpaceOnUse" x1="393.01285" y1="425.21579" x2="372.45071" y2="490.77036" gradientTransform="translate(195.94286,16.830344)"/&gt;
    &lt;linearGradient inkscape:collect="always" xlink:href="#linearGradient5168" id="linearGradient6129" gradientUnits="userSpaceOnUse" x1="361.67862" y1="350.3981" x2="361.7919" y2="371.05057" gradientTransform="translate(195.94286,16.830344)"/&gt;
    &lt;linearGradient id="linearGradient5168"&gt;
      &lt;stop style="stop-color:#818181;stop-opacity:1;" offset="0" id="stop5170"/&gt;
      &lt;stop style="stop-color:#e4e4e4;stop-opacity:1;" offset="1" id="stop5172"/&gt;
    &lt;/linearGradient&gt;
    &lt;linearGradient inkscape:collect="always" xlink:href="#linearGradient5168" id="linearGradient6132" gradientUnits="userSpaceOnUse" x1="367.90091" y1="428.16779" x2="319.18427" y2="466.27859" gradientTransform="translate(195.94286,16.830344)"/&gt;
    &lt;linearGradient id="linearGradient4477"&gt;
      &lt;stop style="stop-color:#99df59;stop-opacity:1;" offset="0" id="stop4479"/&gt;
      &lt;stop style="stop-color:#1c830a;stop-opacity:1;" offset="1" id="stop4481"/&gt;
    &lt;/linearGradient&gt;
    &lt;linearGradient id="linearGradient3366"&gt;
      &lt;stop id="stop3368" offset="0" style="stop-color:#c3b08a;stop-opacity:1;"/&gt;
      &lt;stop id="stop3370" offset="1" style="stop-color:#6a5c43;stop-opacity:1;"/&gt;
    &lt;/linearGradient&gt;
    &lt;linearGradient id="linearGradient3186"&gt;
      &lt;stop style="stop-color:#c3b08a;stop-opacity:1;" offset="0" id="stop3188"/&gt;
      &lt;stop style="stop-color:#e7dfd1;stop-opacity:1;" offset="1" id="stop3190"/&gt;
    &lt;/linearGradient&gt;
    &lt;linearGradient id="linearGradient3262"&gt;
      &lt;stop style="stop-color:#b8d9e6;stop-opacity:1;" offset="0" id="stop3264"/&gt;
      &lt;stop style="stop-color:#2669a9;stop-opacity:1;" offset="1" id="stop3266"/&gt;
    &lt;/linearGradient&gt;
    &lt;linearGradient id="linearGradient5997"&gt;
      &lt;stop style="stop-color:#706985;stop-opacity:1;" offset="0" id="stop5999"/&gt;
      &lt;stop style="stop-color:#c8bfef;stop-opacity:1;" offset="1" id="stop6001"/&gt;
    &lt;/linearGradient&gt;
    &lt;linearGradient id="linearGradient6013"&gt;
      &lt;stop id="stop6015" offset="0" style="stop-color:#260c72;stop-opacity:1;"/&gt;
      &lt;stop id="stop6017" offset="1" style="stop-color:#c8bfef;stop-opacity:1;"/&gt;
    &lt;/linearGradient&gt;
    &lt;linearGradient id="linearGradient3236"&gt;
      &lt;stop style="stop-color:#cccccc;stop-opacity:1;" offset="0" id="stop3238"/&gt;
      &lt;stop style="stop-color:#f6f6f6;stop-opacity:1;" offset="1" id="stop3240"/&gt;
    &lt;/linearGradient&gt;
    &lt;linearGradient id="linearGradient4534"&gt;
      &lt;stop style="stop-color:#c7e0ec;stop-opacity:1;" offset="0" id="stop4536"/&gt;
      &lt;stop style="stop-color:#3b6bb1;stop-opacity:1" offset="1" id="stop4538"/&gt;
    &lt;/linearGradient&gt;
    &lt;linearGradient id="linearGradient4528"&gt;
      &lt;stop id="stop4530" offset="0" style="stop-color:#c5d9e3;stop-opacity:1;"/&gt;
      &lt;stop id="stop4532" offset="1" style="stop-color:#3b6bb1;stop-opacity:1"/&gt;
    &lt;/linearGradient&gt;
    &lt;linearGradient id="linearGradient4542"&gt;
      &lt;stop style="stop-color:#4879c2;stop-opacity:1;" offset="0" id="stop4544"/&gt;
      &lt;stop style="stop-color:#f5f8fc;stop-opacity:1;" offset="1" id="stop4546"/&gt;
    &lt;/linearGradient&gt;
  &lt;/defs&gt;
  &lt;sodipodi:namedview inkscape:document-units="in" pagecolor="#ffffff" bordercolor="#666666" borderopacity="1.0" inkscape:pageopacity="0.0" inkscape:pageshadow="2" inkscape:zoom="3.3151798" inkscape:cx="183.09716" inkscape:cy="96.401407" inkscape:current-layer="layer1" id="namedview3226" showgrid="false" inkscape:window-width="1306" inkscape:window-height="948" inkscape:window-x="1506" inkscape:window-y="57"/&gt;
  &lt;g inkscape:label="Layer 1" inkscape:groupmode="layer" id="layer1" transform="translate(-13.38785,-11.164099)"&gt;
    &lt;g id="g6444" transform="translate(-128.83021,-221.01934)"&gt;
      &lt;path id="path5530" d="M 337.40625,235.28125 C 299.89194,235.28125 268.20328,259.20476 258.34375,291.875 C 254.23928,289.5541 249.51734,288.21875 244.46875,288.21875 C 228.85583,288.21875 216.1875,300.88708 216.1875,316.5 C 216.1875,316.65902 216.18488,316.81035 216.1875,316.96875 C 211.51059,316.01057 206.60693,315.46875 201.53125,315.46875 C 170.58422,315.46875 145.46876,334.48687 145.46875,357.90625 C 145.46875,381.32563 170.58421,400.34376 201.53125,400.34375 C 213.78854,400.34375 225.1141,397.33784 234.34375,392.28125 C 239.856,408.7734 255.41138,420.6875 273.75,420.6875 C 286.17663,420.6875 297.31937,415.21618 304.9375,406.5625 C 312.32808,410.42851 321.0192,412.65625 330.3125,412.65625 C 342.95694,412.65625 354.49621,408.54316 363.15625,401.78125 C 374.82582,413.89262 391.98508,421.56249 411.125,421.5625 C 434.60557,421.5625 455.1271,410.00921 466.15625,392.875 C 467.8166,393.11833 469.52004,393.25 471.25,393.25 C 489.92974,393.25 505.06249,378.55964 505.0625,360.4375 C 505.0625,342.31536 489.92974,327.59375 471.25,327.59375 C 467.90743,327.59375 464.67549,328.09157 461.625,328.96875 C 451.55944,317.10372 436.51009,308.87793 419.3125,306.875 C 415.79467,266.79309 380.46344,235.28124 337.40625,235.28125 z" style="opacity:1;fill:url(#radialGradient2736);fill-opacity:1;fill-rule:nonzero;stroke:#000000;stroke-width:2.58700013;stroke-linecap:butt;stroke-miterlimit:4;stroke-dasharray:none;stroke-dashoffset:0;stroke-opacity:1"/&gt;
      &lt;path id="path6438" d="M 335.61722,233.49985 C 301.32759,233.6024 267.8034,256.50743 257.14847,289.2186 C 241.63944,281.35381 220.80716,290.45199 215.77347,306.99985 C 214.94883,309.50916 214.40747,312.1399 214.27347,314.7811 C 189.94081,310.49587 161.1632,318.45892 148.11722,340.6561 C 139.39144,355.13816 143.63235,374.78214 156.05472,385.7186 C 176.19977,404.87741 209.1836,406.90122 233.33597,395.5311 C 241.17187,416.45786 266.59516,428.29693 287.74222,420.5936 C 294.47711,418.41465 300.61326,414.09757 305.49222,409.2811 C 323.6294,418.03016 346.59065,416.47557 362.96097,404.62485 C 389.21926,430.99608 437.11443,429.92276 461.80472,401.9686 C 464.75349,399.95486 465.59564,394.06482 469.89847,395.4061 C 489.84314,396.79008 508.6235,378.93732 507.02347,358.7811 C 506.37111,338.02089 484.91123,322.1151 464.77347,326.37485 C 460.62011,328.09584 459.0291,321.95531 455.61722,320.4061 C 445.96048,311.92224 433.1423,307.29953 421.11722,304.9686 C 417.4523,268.76786 386.13983,239.15163 350.53384,234.44994 C 345.61315,233.70472 340.60669,233.38458 335.61722,233.49985 z" style="opacity:1;fill:none;fill-opacity:1;fill-rule:nonzero;stroke:#a3ced5;stroke-width:2.58700013;stroke-linecap:butt;stroke-miterlimit:4;stroke-dasharray:none;stroke-dashoffset:0;stroke-opacity:1"/&gt;
    &lt;/g&gt;
  &lt;/g&gt;
  &lt;metadata&gt;
    &lt;rdf:RDF&gt;
      &lt;cc:Work&gt;
        &lt;dc:format&gt;image/svg+xml&lt;/dc:format&gt;
        &lt;dc:type rdf:resource="http://purl.org/dc/dcmitype/StillImage"/&gt;
        &lt;cc:license rdf:resource="http://creativecommons.org/licenses/publicdomain/"/&gt;
        &lt;dc:publisher&gt;
          &lt;cc:Agent rdf:about="http://openclipart.org/"&gt;
            &lt;dc:title&gt;Open Clip Art Library&lt;/dc:title&gt;
          &lt;/cc:Agent&gt;
        &lt;/dc:publisher&gt;
        &lt;dc:title&gt;net wan cloud&lt;/dc:title&gt;
        &lt;dc:date&gt;2008-07-08T17:40:07&lt;/dc:date&gt;
        &lt;dc:description&gt;stylized network diagram symbol for wan cloud&lt;/dc:description&gt;
        &lt;dc:source&gt;http://openclipart.org/detail/17666/net-wan-cloud-by-rgtaylor_csc&lt;/dc:source&gt;
        &lt;dc:creator&gt;
          &lt;cc:Agent&gt;
            &lt;dc:title&gt;rgtaylor_csc&lt;/dc:title&gt;
          &lt;/cc:Agent&gt;
        &lt;/dc:creator&gt;
        &lt;dc:subject&gt;
          &lt;rdf:Bag&gt;
            &lt;rdf:li&gt;clip art&lt;/rdf:li&gt;
            &lt;rdf:li&gt;clipart&lt;/rdf:li&gt;
            &lt;rdf:li&gt;computer&lt;/rdf:li&gt;
            &lt;rdf:li&gt;computer&lt;/rdf:li&gt;
            &lt;rdf:li&gt;image&lt;/rdf:li&gt;
            &lt;rdf:li&gt;media&lt;/rdf:li&gt;
            &lt;rdf:li&gt;network&lt;/rdf:li&gt;
            &lt;rdf:li&gt;network&lt;/rdf:li&gt;
            &lt;rdf:li&gt;public domain&lt;/rdf:li&gt;
            &lt;rdf:li&gt;svg&lt;/rdf:li&gt;
            &lt;rdf:li&gt;symbol&lt;/rdf:li&gt;
            &lt;rdf:li&gt;symbol&lt;/rdf:li&gt;
            &lt;rdf:li&gt;technology&lt;/rdf:li&gt;
            &lt;rdf:li&gt;technology&lt;/rdf:li&gt;
          &lt;/rdf:Bag&gt;
        &lt;/dc:subject&gt;
      &lt;/cc:Work&gt;
      &lt;cc:License rdf:about="http://creativecommons.org/licenses/publicdomain/"&gt;
        &lt;cc:permits rdf:resource="http://creativecommons.org/ns#Reproduction"/&gt;
        &lt;cc:permits rdf:resource="http://creativecommons.org/ns#Distribution"/&gt;
        &lt;cc:permits rdf:resource="http://creativecommons.org/ns#DerivativeWorks"/&gt;
      &lt;/cc:License&gt;
    &lt;/rdf:RDF&gt;
  &lt;/metadata&gt;
&lt;/svg&gt;</y:Resource>
    </y:Resources>
  </data>
</graphml>
